('C:\\Users\\oskar\\Desktop\\algorytm\\build\\zonda_websocket\\PYZ-00.pyz',
 [('multiprocessing.popen_fork',
   'C:\\Users\\oskar\\anaconda3\\lib\\multiprocessing\\popen_fork.py',
   'PYMODULE'),
  ('multiprocessing.connection',
   'C:\\Users\\oskar\\anaconda3\\lib\\multiprocessing\\connection.py',
   'PYMODULE'),
  ('multiprocessing.resource_sharer',
   'C:\\Users\\oskar\\anaconda3\\lib\\multiprocessing\\resource_sharer.py',
   'PYMODULE'),
  ('multiprocessing.process',
   'C:\\Users\\oskar\\anaconda3\\lib\\multiprocessing\\process.py',
   'PYMODULE'),
  ('threading', 'C:\\Users\\oskar\\anaconda3\\lib\\threading.py', 'PYMODULE'),
  ('_threading_local',
   'C:\\Users\\oskar\\anaconda3\\lib\\_threading_local.py',
   'PYMODULE'),
  ('contextlib', 'C:\\Users\\oskar\\anaconda3\\lib\\contextlib.py', 'PYMODULE'),
  ('selectors', 'C:\\Users\\oskar\\anaconda3\\lib\\selectors.py', 'PYMODULE'),
  ('xmlrpc.client',
   'C:\\Users\\oskar\\anaconda3\\lib\\xmlrpc\\client.py',
   'PYMODULE'),
  ('xmlrpc',
   'C:\\Users\\oskar\\anaconda3\\lib\\xmlrpc\\__init__.py',
   'PYMODULE'),
  ('gzip', 'C:\\Users\\oskar\\anaconda3\\lib\\gzip.py', 'PYMODULE'),
  ('argparse', 'C:\\Users\\oskar\\anaconda3\\lib\\argparse.py', 'PYMODULE'),
  ('textwrap', 'C:\\Users\\oskar\\anaconda3\\lib\\textwrap.py', 'PYMODULE'),
  ('copy', 'C:\\Users\\oskar\\anaconda3\\lib\\copy.py', 'PYMODULE'),
  ('gettext', 'C:\\Users\\oskar\\anaconda3\\lib\\gettext.py', 'PYMODULE'),
  ('shutil', 'C:\\Users\\oskar\\anaconda3\\lib\\shutil.py', 'PYMODULE'),
  ('zipfile', 'C:\\Users\\oskar\\anaconda3\\lib\\zipfile.py', 'PYMODULE'),
  ('py_compile', 'C:\\Users\\oskar\\anaconda3\\lib\\py_compile.py', 'PYMODULE'),
  ('ntpath', 'C:\\Users\\oskar\\anaconda3\\lib\\ntpath.py', 'PYMODULE'),
  ('string', 'C:\\Users\\oskar\\anaconda3\\lib\\string.py', 'PYMODULE'),
  ('genericpath',
   'C:\\Users\\oskar\\anaconda3\\lib\\genericpath.py',
   'PYMODULE'),
  ('importlib.machinery',
   'C:\\Users\\oskar\\anaconda3\\lib\\importlib\\machinery.py',
   'PYMODULE'),
  ('importlib',
   'C:\\Users\\oskar\\anaconda3\\lib\\importlib\\__init__.py',
   'PYMODULE'),
  ('importlib._bootstrap',
   'C:\\Users\\oskar\\anaconda3\\lib\\importlib\\_bootstrap.py',
   'PYMODULE'),
  ('importlib._bootstrap_external',
   'C:\\Users\\oskar\\anaconda3\\lib\\importlib\\_bootstrap_external.py',
   'PYMODULE'),
  ('importlib.metadata',
   'C:\\Users\\oskar\\anaconda3\\lib\\importlib\\metadata.py',
   'PYMODULE'),
  ('importlib.abc',
   'C:\\Users\\oskar\\anaconda3\\lib\\importlib\\abc.py',
   'PYMODULE'),
  ('configparser',
   'C:\\Users\\oskar\\anaconda3\\lib\\configparser.py',
   'PYMODULE'),
  ('pathlib', 'C:\\Users\\oskar\\anaconda3\\lib\\pathlib.py', 'PYMODULE'),
  ('email', 'C:\\Users\\oskar\\anaconda3\\lib\\email\\__init__.py', 'PYMODULE'),
  ('email.parser',
   'C:\\Users\\oskar\\anaconda3\\lib\\email\\parser.py',
   'PYMODULE'),
  ('email._policybase',
   'C:\\Users\\oskar\\anaconda3\\lib\\email\\_policybase.py',
   'PYMODULE'),
  ('email.utils',
   'C:\\Users\\oskar\\anaconda3\\lib\\email\\utils.py',
   'PYMODULE'),
  ('email._parseaddr',
   'C:\\Users\\oskar\\anaconda3\\lib\\email\\_parseaddr.py',
   'PYMODULE'),
  ('calendar', 'C:\\Users\\oskar\\anaconda3\\lib\\calendar.py', 'PYMODULE'),
  ('random', 'C:\\Users\\oskar\\anaconda3\\lib\\random.py', 'PYMODULE'),
  ('hashlib', 'C:\\Users\\oskar\\anaconda3\\lib\\hashlib.py', 'PYMODULE'),
  ('bisect', 'C:\\Users\\oskar\\anaconda3\\lib\\bisect.py', 'PYMODULE'),
  ('email.feedparser',
   'C:\\Users\\oskar\\anaconda3\\lib\\email\\feedparser.py',
   'PYMODULE'),
  ('email.message',
   'C:\\Users\\oskar\\anaconda3\\lib\\email\\message.py',
   'PYMODULE'),
  ('email.policy',
   'C:\\Users\\oskar\\anaconda3\\lib\\email\\policy.py',
   'PYMODULE'),
  ('email.contentmanager',
   'C:\\Users\\oskar\\anaconda3\\lib\\email\\contentmanager.py',
   'PYMODULE'),
  ('email.quoprimime',
   'C:\\Users\\oskar\\anaconda3\\lib\\email\\quoprimime.py',
   'PYMODULE'),
  ('email.headerregistry',
   'C:\\Users\\oskar\\anaconda3\\lib\\email\\headerregistry.py',
   'PYMODULE'),
  ('email.iterators',
   'C:\\Users\\oskar\\anaconda3\\lib\\email\\iterators.py',
   'PYMODULE'),
  ('email.generator',
   'C:\\Users\\oskar\\anaconda3\\lib\\email\\generator.py',
   'PYMODULE'),
  ('email._encoded_words',
   'C:\\Users\\oskar\\anaconda3\\lib\\email\\_encoded_words.py',
   'PYMODULE'),
  ('quopri', 'C:\\Users\\oskar\\anaconda3\\lib\\quopri.py', 'PYMODULE'),
  ('getopt', 'C:\\Users\\oskar\\anaconda3\\lib\\getopt.py', 'PYMODULE'),
  ('uu', 'C:\\Users\\oskar\\anaconda3\\lib\\uu.py', 'PYMODULE'),
  ('optparse', 'C:\\Users\\oskar\\anaconda3\\lib\\optparse.py', 'PYMODULE'),
  ('email._header_value_parser',
   'C:\\Users\\oskar\\anaconda3\\lib\\email\\_header_value_parser.py',
   'PYMODULE'),
  ('urllib',
   'C:\\Users\\oskar\\anaconda3\\lib\\urllib\\__init__.py',
   'PYMODULE'),
  ('email.header',
   'C:\\Users\\oskar\\anaconda3\\lib\\email\\header.py',
   'PYMODULE'),
  ('email.base64mime',
   'C:\\Users\\oskar\\anaconda3\\lib\\email\\base64mime.py',
   'PYMODULE'),
  ('email.charset',
   'C:\\Users\\oskar\\anaconda3\\lib\\email\\charset.py',
   'PYMODULE'),
  ('email.encoders',
   'C:\\Users\\oskar\\anaconda3\\lib\\email\\encoders.py',
   'PYMODULE'),
  ('email.errors',
   'C:\\Users\\oskar\\anaconda3\\lib\\email\\errors.py',
   'PYMODULE'),
  ('csv', 'C:\\Users\\oskar\\anaconda3\\lib\\csv.py', 'PYMODULE'),
  ('tokenize', 'C:\\Users\\oskar\\anaconda3\\lib\\tokenize.py', 'PYMODULE'),
  ('token', 'C:\\Users\\oskar\\anaconda3\\lib\\token.py', 'PYMODULE'),
  ('posixpath', 'C:\\Users\\oskar\\anaconda3\\lib\\posixpath.py', 'PYMODULE'),
  ('importlib.util',
   'C:\\Users\\oskar\\anaconda3\\lib\\importlib\\util.py',
   'PYMODULE'),
  ('tarfile', 'C:\\Users\\oskar\\anaconda3\\lib\\tarfile.py', 'PYMODULE'),
  ('lzma', 'C:\\Users\\oskar\\anaconda3\\lib\\lzma.py', 'PYMODULE'),
  ('bz2', 'C:\\Users\\oskar\\anaconda3\\lib\\bz2.py', 'PYMODULE'),
  ('fnmatch', 'C:\\Users\\oskar\\anaconda3\\lib\\fnmatch.py', 'PYMODULE'),
  ('stat', 'C:\\Users\\oskar\\anaconda3\\lib\\stat.py', 'PYMODULE'),
  ('_compression',
   'C:\\Users\\oskar\\anaconda3\\lib\\_compression.py',
   'PYMODULE'),
  ('xml.parsers.expat',
   'C:\\Users\\oskar\\anaconda3\\lib\\xml\\parsers\\expat.py',
   'PYMODULE'),
  ('xml.parsers',
   'C:\\Users\\oskar\\anaconda3\\lib\\xml\\parsers\\__init__.py',
   'PYMODULE'),
  ('xml', 'C:\\Users\\oskar\\anaconda3\\lib\\xml\\__init__.py', 'PYMODULE'),
  ('xml.sax.expatreader',
   'C:\\Users\\oskar\\anaconda3\\lib\\xml\\sax\\expatreader.py',
   'PYMODULE'),
  ('xml.sax.saxutils',
   'C:\\Users\\oskar\\anaconda3\\lib\\xml\\sax\\saxutils.py',
   'PYMODULE'),
  ('urllib.request',
   'C:\\Users\\oskar\\anaconda3\\lib\\urllib\\request.py',
   'PYMODULE'),
  ('getpass', 'C:\\Users\\oskar\\anaconda3\\lib\\getpass.py', 'PYMODULE'),
  ('nturl2path', 'C:\\Users\\oskar\\anaconda3\\lib\\nturl2path.py', 'PYMODULE'),
  ('ftplib', 'C:\\Users\\oskar\\anaconda3\\lib\\ftplib.py', 'PYMODULE'),
  ('netrc', 'C:\\Users\\oskar\\anaconda3\\lib\\netrc.py', 'PYMODULE'),
  ('shlex', 'C:\\Users\\oskar\\anaconda3\\lib\\shlex.py', 'PYMODULE'),
  ('mimetypes', 'C:\\Users\\oskar\\anaconda3\\lib\\mimetypes.py', 'PYMODULE'),
  ('http.cookiejar',
   'C:\\Users\\oskar\\anaconda3\\lib\\http\\cookiejar.py',
   'PYMODULE'),
  ('http', 'C:\\Users\\oskar\\anaconda3\\lib\\http\\__init__.py', 'PYMODULE'),
  ('ssl', 'C:\\Users\\oskar\\anaconda3\\lib\\ssl.py', 'PYMODULE'),
  ('urllib.response',
   'C:\\Users\\oskar\\anaconda3\\lib\\urllib\\response.py',
   'PYMODULE'),
  ('urllib.error',
   'C:\\Users\\oskar\\anaconda3\\lib\\urllib\\error.py',
   'PYMODULE'),
  ('xml.sax',
   'C:\\Users\\oskar\\anaconda3\\lib\\xml\\sax\\__init__.py',
   'PYMODULE'),
  ('xml.sax.handler',
   'C:\\Users\\oskar\\anaconda3\\lib\\xml\\sax\\handler.py',
   'PYMODULE'),
  ('xml.sax._exceptions',
   'C:\\Users\\oskar\\anaconda3\\lib\\xml\\sax\\_exceptions.py',
   'PYMODULE'),
  ('xml.sax.xmlreader',
   'C:\\Users\\oskar\\anaconda3\\lib\\xml\\sax\\xmlreader.py',
   'PYMODULE'),
  ('urllib.parse',
   'C:\\Users\\oskar\\anaconda3\\lib\\urllib\\parse.py',
   'PYMODULE'),
  ('http.client',
   'C:\\Users\\oskar\\anaconda3\\lib\\http\\client.py',
   'PYMODULE'),
  ('decimal', 'C:\\Users\\oskar\\anaconda3\\lib\\decimal.py', 'PYMODULE'),
  ('_pydecimal', 'C:\\Users\\oskar\\anaconda3\\lib\\_pydecimal.py', 'PYMODULE'),
  ('contextvars',
   'C:\\Users\\oskar\\anaconda3\\lib\\contextvars.py',
   'PYMODULE'),
  ('numbers', 'C:\\Users\\oskar\\anaconda3\\lib\\numbers.py', 'PYMODULE'),
  ('base64', 'C:\\Users\\oskar\\anaconda3\\lib\\base64.py', 'PYMODULE'),
  ('hmac', 'C:\\Users\\oskar\\anaconda3\\lib\\hmac.py', 'PYMODULE'),
  ('multiprocessing.context',
   'C:\\Users\\oskar\\anaconda3\\lib\\multiprocessing\\context.py',
   'PYMODULE'),
  ('multiprocessing.popen_forkserver',
   'C:\\Users\\oskar\\anaconda3\\lib\\multiprocessing\\popen_forkserver.py',
   'PYMODULE'),
  ('multiprocessing.popen_spawn_posix',
   'C:\\Users\\oskar\\anaconda3\\lib\\multiprocessing\\popen_spawn_posix.py',
   'PYMODULE'),
  ('multiprocessing.resource_tracker',
   'C:\\Users\\oskar\\anaconda3\\lib\\multiprocessing\\resource_tracker.py',
   'PYMODULE'),
  ('multiprocessing.forkserver',
   'C:\\Users\\oskar\\anaconda3\\lib\\multiprocessing\\forkserver.py',
   'PYMODULE'),
  ('multiprocessing.sharedctypes',
   'C:\\Users\\oskar\\anaconda3\\lib\\multiprocessing\\sharedctypes.py',
   'PYMODULE'),
  ('multiprocessing.heap',
   'C:\\Users\\oskar\\anaconda3\\lib\\multiprocessing\\heap.py',
   'PYMODULE'),
  ('ctypes',
   'C:\\Users\\oskar\\anaconda3\\lib\\ctypes\\__init__.py',
   'PYMODULE'),
  ('ctypes._endian',
   'C:\\Users\\oskar\\anaconda3\\lib\\ctypes\\_endian.py',
   'PYMODULE'),
  ('multiprocessing.pool',
   'C:\\Users\\oskar\\anaconda3\\lib\\multiprocessing\\pool.py',
   'PYMODULE'),
  ('multiprocessing.dummy',
   'C:\\Users\\oskar\\anaconda3\\lib\\multiprocessing\\dummy\\__init__.py',
   'PYMODULE'),
  ('multiprocessing.dummy.connection',
   'C:\\Users\\oskar\\anaconda3\\lib\\multiprocessing\\dummy\\connection.py',
   'PYMODULE'),
  ('queue', 'C:\\Users\\oskar\\anaconda3\\lib\\queue.py', 'PYMODULE'),
  ('multiprocessing.queues',
   'C:\\Users\\oskar\\anaconda3\\lib\\multiprocessing\\queues.py',
   'PYMODULE'),
  ('multiprocessing.synchronize',
   'C:\\Users\\oskar\\anaconda3\\lib\\multiprocessing\\synchronize.py',
   'PYMODULE'),
  ('multiprocessing.managers',
   'C:\\Users\\oskar\\anaconda3\\lib\\multiprocessing\\managers.py',
   'PYMODULE'),
  ('multiprocessing.shared_memory',
   'C:\\Users\\oskar\\anaconda3\\lib\\multiprocessing\\shared_memory.py',
   'PYMODULE'),
  ('secrets', 'C:\\Users\\oskar\\anaconda3\\lib\\secrets.py', 'PYMODULE'),
  ('multiprocessing.reduction',
   'C:\\Users\\oskar\\anaconda3\\lib\\multiprocessing\\reduction.py',
   'PYMODULE'),
  ('pickle', 'C:\\Users\\oskar\\anaconda3\\lib\\pickle.py', 'PYMODULE'),
  ('pprint', 'C:\\Users\\oskar\\anaconda3\\lib\\pprint.py', 'PYMODULE'),
  ('doctest', 'C:\\Users\\oskar\\anaconda3\\lib\\doctest.py', 'PYMODULE'),
  ('unittest',
   'C:\\Users\\oskar\\anaconda3\\lib\\unittest\\__init__.py',
   'PYMODULE'),
  ('unittest.signals',
   'C:\\Users\\oskar\\anaconda3\\lib\\unittest\\signals.py',
   'PYMODULE'),
  ('unittest.main',
   'C:\\Users\\oskar\\anaconda3\\lib\\unittest\\main.py',
   'PYMODULE'),
  ('unittest.runner',
   'C:\\Users\\oskar\\anaconda3\\lib\\unittest\\runner.py',
   'PYMODULE'),
  ('unittest.loader',
   'C:\\Users\\oskar\\anaconda3\\lib\\unittest\\loader.py',
   'PYMODULE'),
  ('unittest.suite',
   'C:\\Users\\oskar\\anaconda3\\lib\\unittest\\suite.py',
   'PYMODULE'),
  ('unittest.case',
   'C:\\Users\\oskar\\anaconda3\\lib\\unittest\\case.py',
   'PYMODULE'),
  ('unittest.async_case',
   'C:\\Users\\oskar\\anaconda3\\lib\\unittest\\async_case.py',
   'PYMODULE'),
  ('asyncio',
   'C:\\Users\\oskar\\anaconda3\\lib\\asyncio\\__init__.py',
   'PYMODULE'),
  ('asyncio.unix_events',
   'C:\\Users\\oskar\\anaconda3\\lib\\asyncio\\unix_events.py',
   'PYMODULE'),
  ('asyncio.log',
   'C:\\Users\\oskar\\anaconda3\\lib\\asyncio\\log.py',
   'PYMODULE'),
  ('asyncio.windows_events',
   'C:\\Users\\oskar\\anaconda3\\lib\\asyncio\\windows_events.py',
   'PYMODULE'),
  ('asyncio.windows_utils',
   'C:\\Users\\oskar\\anaconda3\\lib\\asyncio\\windows_utils.py',
   'PYMODULE'),
  ('asyncio.selector_events',
   'C:\\Users\\oskar\\anaconda3\\lib\\asyncio\\selector_events.py',
   'PYMODULE'),
  ('asyncio.proactor_events',
   'C:\\Users\\oskar\\anaconda3\\lib\\asyncio\\proactor_events.py',
   'PYMODULE'),
  ('asyncio.base_subprocess',
   'C:\\Users\\oskar\\anaconda3\\lib\\asyncio\\base_subprocess.py',
   'PYMODULE'),
  ('asyncio.subprocess',
   'C:\\Users\\oskar\\anaconda3\\lib\\asyncio\\subprocess.py',
   'PYMODULE'),
  ('asyncio.streams',
   'C:\\Users\\oskar\\anaconda3\\lib\\asyncio\\streams.py',
   'PYMODULE'),
  ('asyncio.queues',
   'C:\\Users\\oskar\\anaconda3\\lib\\asyncio\\queues.py',
   'PYMODULE'),
  ('asyncio.runners',
   'C:\\Users\\oskar\\anaconda3\\lib\\asyncio\\runners.py',
   'PYMODULE'),
  ('asyncio.events',
   'C:\\Users\\oskar\\anaconda3\\lib\\asyncio\\events.py',
   'PYMODULE'),
  ('asyncio.trsock',
   'C:\\Users\\oskar\\anaconda3\\lib\\asyncio\\trsock.py',
   'PYMODULE'),
  ('asyncio.staggered',
   'C:\\Users\\oskar\\anaconda3\\lib\\asyncio\\staggered.py',
   'PYMODULE'),
  ('typing', 'C:\\Users\\oskar\\anaconda3\\lib\\typing.py', 'PYMODULE'),
  ('asyncio.tasks',
   'C:\\Users\\oskar\\anaconda3\\lib\\asyncio\\tasks.py',
   'PYMODULE'),
  ('concurrent.futures',
   'C:\\Users\\oskar\\anaconda3\\lib\\concurrent\\futures\\__init__.py',
   'PYMODULE'),
  ('concurrent.futures.thread',
   'C:\\Users\\oskar\\anaconda3\\lib\\concurrent\\futures\\thread.py',
   'PYMODULE'),
  ('concurrent.futures.process',
   'C:\\Users\\oskar\\anaconda3\\lib\\concurrent\\futures\\process.py',
   'PYMODULE'),
  ('concurrent.futures._base',
   'C:\\Users\\oskar\\anaconda3\\lib\\concurrent\\futures\\_base.py',
   'PYMODULE'),
  ('concurrent',
   'C:\\Users\\oskar\\anaconda3\\lib\\concurrent\\__init__.py',
   'PYMODULE'),
  ('asyncio.base_tasks',
   'C:\\Users\\oskar\\anaconda3\\lib\\asyncio\\base_tasks.py',
   'PYMODULE'),
  ('asyncio.locks',
   'C:\\Users\\oskar\\anaconda3\\lib\\asyncio\\locks.py',
   'PYMODULE'),
  ('asyncio.sslproto',
   'C:\\Users\\oskar\\anaconda3\\lib\\asyncio\\sslproto.py',
   'PYMODULE'),
  ('asyncio.transports',
   'C:\\Users\\oskar\\anaconda3\\lib\\asyncio\\transports.py',
   'PYMODULE'),
  ('asyncio.base_events',
   'C:\\Users\\oskar\\anaconda3\\lib\\asyncio\\base_events.py',
   'PYMODULE'),
  ('asyncio.protocols',
   'C:\\Users\\oskar\\anaconda3\\lib\\asyncio\\protocols.py',
   'PYMODULE'),
  ('asyncio.futures',
   'C:\\Users\\oskar\\anaconda3\\lib\\asyncio\\futures.py',
   'PYMODULE'),
  ('asyncio.coroutines',
   'C:\\Users\\oskar\\anaconda3\\lib\\asyncio\\coroutines.py',
   'PYMODULE'),
  ('asyncio.base_futures',
   'C:\\Users\\oskar\\anaconda3\\lib\\asyncio\\base_futures.py',
   'PYMODULE'),
  ('asyncio.exceptions',
   'C:\\Users\\oskar\\anaconda3\\lib\\asyncio\\exceptions.py',
   'PYMODULE'),
  ('asyncio.format_helpers',
   'C:\\Users\\oskar\\anaconda3\\lib\\asyncio\\format_helpers.py',
   'PYMODULE'),
  ('asyncio.constants',
   'C:\\Users\\oskar\\anaconda3\\lib\\asyncio\\constants.py',
   'PYMODULE'),
  ('unittest.result',
   'C:\\Users\\oskar\\anaconda3\\lib\\unittest\\result.py',
   'PYMODULE'),
  ('unittest.util',
   'C:\\Users\\oskar\\anaconda3\\lib\\unittest\\util.py',
   'PYMODULE'),
  ('pdb', 'C:\\Users\\oskar\\anaconda3\\lib\\pdb.py', 'PYMODULE'),
  ('pydoc', 'C:\\Users\\oskar\\anaconda3\\lib\\pydoc.py', 'PYMODULE'),
  ('webbrowser', 'C:\\Users\\oskar\\anaconda3\\lib\\webbrowser.py', 'PYMODULE'),
  ('http.server',
   'C:\\Users\\oskar\\anaconda3\\lib\\http\\server.py',
   'PYMODULE'),
  ('socketserver',
   'C:\\Users\\oskar\\anaconda3\\lib\\socketserver.py',
   'PYMODULE'),
  ('html', 'C:\\Users\\oskar\\anaconda3\\lib\\html\\__init__.py', 'PYMODULE'),
  ('html.entities',
   'C:\\Users\\oskar\\anaconda3\\lib\\html\\entities.py',
   'PYMODULE'),
  ('pydoc_data.topics',
   'C:\\Users\\oskar\\anaconda3\\lib\\pydoc_data\\topics.py',
   'PYMODULE'),
  ('pydoc_data',
   'C:\\Users\\oskar\\anaconda3\\lib\\pydoc_data\\__init__.py',
   'PYMODULE'),
  ('tty', 'C:\\Users\\oskar\\anaconda3\\lib\\tty.py', 'PYMODULE'),
  ('sysconfig', 'C:\\Users\\oskar\\anaconda3\\lib\\sysconfig.py', 'PYMODULE'),
  ('_osx_support',
   'C:\\Users\\oskar\\anaconda3\\lib\\_osx_support.py',
   'PYMODULE'),
  ('distutils.log',
   'C:\\Users\\oskar\\anaconda3\\lib\\distutils\\log.py',
   'PYMODULE'),
  ('distutils',
   'C:\\Users\\oskar\\anaconda3\\lib\\distutils\\__init__.py',
   'PYMODULE'),
  ('distutils.ccompiler',
   'C:\\Users\\oskar\\anaconda3\\lib\\distutils\\ccompiler.py',
   'PYMODULE'),
  ('distutils.fancy_getopt',
   'C:\\Users\\oskar\\anaconda3\\lib\\distutils\\fancy_getopt.py',
   'PYMODULE'),
  ('distutils.debug',
   'C:\\Users\\oskar\\anaconda3\\lib\\distutils\\debug.py',
   'PYMODULE'),
  ('distutils.util',
   'C:\\Users\\oskar\\anaconda3\\lib\\distutils\\util.py',
   'PYMODULE'),
  ('distutils.filelist',
   'C:\\Users\\oskar\\anaconda3\\lib\\distutils\\filelist.py',
   'PYMODULE'),
  ('lib2to3.refactor',
   'C:\\Users\\oskar\\anaconda3\\lib\\lib2to3\\refactor.py',
   'PYMODULE'),
  ('lib2to3.btm_matcher',
   'C:\\Users\\oskar\\anaconda3\\lib\\lib2to3\\btm_matcher.py',
   'PYMODULE'),
  ('lib2to3.btm_utils',
   'C:\\Users\\oskar\\anaconda3\\lib\\lib2to3\\btm_utils.py',
   'PYMODULE'),
  ('lib2to3.pgen2.grammar',
   'C:\\Users\\oskar\\anaconda3\\lib\\lib2to3\\pgen2\\grammar.py',
   'PYMODULE'),
  ('lib2to3.pygram',
   'C:\\Users\\oskar\\anaconda3\\lib\\lib2to3\\pygram.py',
   'PYMODULE'),
  ('lib2to3.pytree',
   'C:\\Users\\oskar\\anaconda3\\lib\\lib2to3\\pytree.py',
   'PYMODULE'),
  ('lib2to3',
   'C:\\Users\\oskar\\anaconda3\\lib\\lib2to3\\__init__.py',
   'PYMODULE'),
  ('lib2to3.patcomp',
   'C:\\Users\\oskar\\anaconda3\\lib\\lib2to3\\patcomp.py',
   'PYMODULE'),
  ('lib2to3.pgen2.parse',
   'C:\\Users\\oskar\\anaconda3\\lib\\lib2to3\\pgen2\\parse.py',
   'PYMODULE'),
  ('lib2to3.pgen2.literals',
   'C:\\Users\\oskar\\anaconda3\\lib\\lib2to3\\pgen2\\literals.py',
   'PYMODULE'),
  ('lib2to3.fixer_util',
   'C:\\Users\\oskar\\anaconda3\\lib\\lib2to3\\fixer_util.py',
   'PYMODULE'),
  ('lib2to3.pgen2.token',
   'C:\\Users\\oskar\\anaconda3\\lib\\lib2to3\\pgen2\\token.py',
   'PYMODULE'),
  ('lib2to3.pgen2.tokenize',
   'C:\\Users\\oskar\\anaconda3\\lib\\lib2to3\\pgen2\\tokenize.py',
   'PYMODULE'),
  ('lib2to3.pgen2.driver',
   'C:\\Users\\oskar\\anaconda3\\lib\\lib2to3\\pgen2\\driver.py',
   'PYMODULE'),
  ('lib2to3.pgen2.pgen',
   'C:\\Users\\oskar\\anaconda3\\lib\\lib2to3\\pgen2\\pgen.py',
   'PYMODULE'),
  ('lib2to3.pgen2',
   'C:\\Users\\oskar\\anaconda3\\lib\\lib2to3\\pgen2\\__init__.py',
   'PYMODULE'),
  ('distutils.dep_util',
   'C:\\Users\\oskar\\anaconda3\\lib\\distutils\\dep_util.py',
   'PYMODULE'),
  ('distutils.dir_util',
   'C:\\Users\\oskar\\anaconda3\\lib\\distutils\\dir_util.py',
   'PYMODULE'),
  ('distutils.file_util',
   'C:\\Users\\oskar\\anaconda3\\lib\\distutils\\file_util.py',
   'PYMODULE'),
  ('distutils.spawn',
   'C:\\Users\\oskar\\anaconda3\\lib\\distutils\\spawn.py',
   'PYMODULE'),
  ('distutils.errors',
   'C:\\Users\\oskar\\anaconda3\\lib\\distutils\\errors.py',
   'PYMODULE'),
  ('distutils.sysconfig',
   'C:\\Users\\oskar\\anaconda3\\lib\\distutils\\sysconfig.py',
   'PYMODULE'),
  ('distutils.text_file',
   'C:\\Users\\oskar\\anaconda3\\lib\\distutils\\text_file.py',
   'PYMODULE'),
  ('platform', 'C:\\Users\\oskar\\anaconda3\\lib\\platform.py', 'PYMODULE'),
  ('plistlib', 'C:\\Users\\oskar\\anaconda3\\lib\\plistlib.py', 'PYMODULE'),
  ('pkgutil', 'C:\\Users\\oskar\\anaconda3\\lib\\pkgutil.py', 'PYMODULE'),
  ('zipimport', 'C:\\Users\\oskar\\anaconda3\\lib\\zipimport.py', 'PYMODULE'),
  ('runpy', 'C:\\Users\\oskar\\anaconda3\\lib\\runpy.py', 'PYMODULE'),
  ('readline',
   'C:\\Users\\oskar\\anaconda3\\lib\\site-packages\\readline.py',
   'PYMODULE'),
  ('pyreadline.console',
   'C:\\Users\\oskar\\anaconda3\\lib\\site-packages\\pyreadline\\console\\__init__.py',
   'PYMODULE'),
  ('pyreadline.console.console',
   'C:\\Users\\oskar\\anaconda3\\lib\\site-packages\\pyreadline\\console\\console.py',
   'PYMODULE'),
  ('pyreadline.console.event',
   'C:\\Users\\oskar\\anaconda3\\lib\\site-packages\\pyreadline\\console\\event.py',
   'PYMODULE'),
  ('ctypes.wintypes',
   'C:\\Users\\oskar\\anaconda3\\lib\\ctypes\\wintypes.py',
   'PYMODULE'),
  ('ctypes.util',
   'C:\\Users\\oskar\\anaconda3\\lib\\ctypes\\util.py',
   'PYMODULE'),
  ('ctypes._aix',
   'C:\\Users\\oskar\\anaconda3\\lib\\ctypes\\_aix.py',
   'PYMODULE'),
  ('ctypes.macholib.dyld',
   'C:\\Users\\oskar\\anaconda3\\lib\\ctypes\\macholib\\dyld.py',
   'PYMODULE'),
  ('ctypes.macholib',
   'C:\\Users\\oskar\\anaconda3\\lib\\ctypes\\macholib\\__init__.py',
   'PYMODULE'),
  ('ctypes.macholib.dylib',
   'C:\\Users\\oskar\\anaconda3\\lib\\ctypes\\macholib\\dylib.py',
   'PYMODULE'),
  ('ctypes.macholib.framework',
   'C:\\Users\\oskar\\anaconda3\\lib\\ctypes\\macholib\\framework.py',
   'PYMODULE'),
  ('pyreadline.console.ansi',
   'C:\\Users\\oskar\\anaconda3\\lib\\site-packages\\pyreadline\\console\\ansi.py',
   'PYMODULE'),
  ('pyreadline.keysyms',
   'C:\\Users\\oskar\\anaconda3\\lib\\site-packages\\pyreadline\\keysyms\\__init__.py',
   'PYMODULE'),
  ('pyreadline.keysyms.keysyms',
   'C:\\Users\\oskar\\anaconda3\\lib\\site-packages\\pyreadline\\keysyms\\keysyms.py',
   'PYMODULE'),
  ('pyreadline.keysyms.common',
   'C:\\Users\\oskar\\anaconda3\\lib\\site-packages\\pyreadline\\keysyms\\common.py',
   'PYMODULE'),
  ('pyreadline.keysyms.ironpython_keysyms',
   'C:\\Users\\oskar\\anaconda3\\lib\\site-packages\\pyreadline\\keysyms\\ironpython_keysyms.py',
   'PYMODULE'),
  ('pyreadline.keysyms.winconstants',
   'C:\\Users\\oskar\\anaconda3\\lib\\site-packages\\pyreadline\\keysyms\\winconstants.py',
   'PYMODULE'),
  ('pyreadline.logger',
   'C:\\Users\\oskar\\anaconda3\\lib\\site-packages\\pyreadline\\logger.py',
   'PYMODULE'),
  ('logging.handlers',
   'C:\\Users\\oskar\\anaconda3\\lib\\logging\\handlers.py',
   'PYMODULE'),
  ('win32evtlogutil',
   'C:\\Users\\oskar\\anaconda3\\lib\\site-packages\\win32\\lib\\win32evtlogutil.py',
   'PYMODULE'),
  ('winerror',
   'C:\\Users\\oskar\\anaconda3\\lib\\site-packages\\win32\\lib\\winerror.py',
   'PYMODULE'),
  ('win32con',
   'C:\\Users\\oskar\\anaconda3\\lib\\site-packages\\win32\\lib\\win32con.py',
   'PYMODULE'),
  ('smtplib', 'C:\\Users\\oskar\\anaconda3\\lib\\smtplib.py', 'PYMODULE'),
  ('pyreadline.unicode_helper',
   'C:\\Users\\oskar\\anaconda3\\lib\\site-packages\\pyreadline\\unicode_helper.py',
   'PYMODULE'),
  ('pyreadline.py3k_compat',
   'C:\\Users\\oskar\\anaconda3\\lib\\site-packages\\pyreadline\\py3k_compat.py',
   'PYMODULE'),
  ('pyreadline.console.ironpython_console',
   'C:\\Users\\oskar\\anaconda3\\lib\\site-packages\\pyreadline\\console\\ironpython_console.py',
   'PYMODULE'),
  ('pyreadline',
   'C:\\Users\\oskar\\anaconda3\\lib\\site-packages\\pyreadline\\__init__.py',
   'PYMODULE'),
  ('pyreadline.release',
   'C:\\Users\\oskar\\anaconda3\\lib\\site-packages\\pyreadline\\release.py',
   'PYMODULE'),
  ('pyreadline.modes',
   'C:\\Users\\oskar\\anaconda3\\lib\\site-packages\\pyreadline\\modes\\__init__.py',
   'PYMODULE'),
  ('pyreadline.modes.vi',
   'C:\\Users\\oskar\\anaconda3\\lib\\site-packages\\pyreadline\\modes\\vi.py',
   'PYMODULE'),
  ('pyreadline.lineeditor.history',
   'C:\\Users\\oskar\\anaconda3\\lib\\site-packages\\pyreadline\\lineeditor\\history.py',
   'PYMODULE'),
  ('pyreadline.lineeditor.lineobj',
   'C:\\Users\\oskar\\anaconda3\\lib\\site-packages\\pyreadline\\lineeditor\\lineobj.py',
   'PYMODULE'),
  ('pyreadline.lineeditor.wordmatcher',
   'C:\\Users\\oskar\\anaconda3\\lib\\site-packages\\pyreadline\\lineeditor\\wordmatcher.py',
   'PYMODULE'),
  ('pyreadline.modes.notemacs',
   'C:\\Users\\oskar\\anaconda3\\lib\\site-packages\\pyreadline\\modes\\notemacs.py',
   'PYMODULE'),
  ('pyreadline.modes.emacs',
   'C:\\Users\\oskar\\anaconda3\\lib\\site-packages\\pyreadline\\modes\\emacs.py',
   'PYMODULE'),
  ('pyreadline.modes.basemode',
   'C:\\Users\\oskar\\anaconda3\\lib\\site-packages\\pyreadline\\modes\\basemode.py',
   'PYMODULE'),
  ('pyreadline.error',
   'C:\\Users\\oskar\\anaconda3\\lib\\site-packages\\pyreadline\\error.py',
   'PYMODULE'),
  ('pyreadline.lineeditor',
   'C:\\Users\\oskar\\anaconda3\\lib\\site-packages\\pyreadline\\lineeditor\\__init__.py',
   'PYMODULE'),
  ('pyreadline.clipboard',
   'C:\\Users\\oskar\\anaconda3\\lib\\site-packages\\pyreadline\\clipboard\\__init__.py',
   'PYMODULE'),
  ('pyreadline.clipboard.win32_clipboard',
   'C:\\Users\\oskar\\anaconda3\\lib\\site-packages\\pyreadline\\clipboard\\win32_clipboard.py',
   'PYMODULE'),
  ('pyreadline.clipboard.no_clipboard',
   'C:\\Users\\oskar\\anaconda3\\lib\\site-packages\\pyreadline\\clipboard\\no_clipboard.py',
   'PYMODULE'),
  ('pyreadline.clipboard.ironpython_clipboard',
   'C:\\Users\\oskar\\anaconda3\\lib\\site-packages\\pyreadline\\clipboard\\ironpython_clipboard.py',
   'PYMODULE'),
  ('pyreadline.rlmain',
   'C:\\Users\\oskar\\anaconda3\\lib\\site-packages\\pyreadline\\rlmain.py',
   'PYMODULE'),
  ('glob', 'C:\\Users\\oskar\\anaconda3\\lib\\glob.py', 'PYMODULE'),
  ('code', 'C:\\Users\\oskar\\anaconda3\\lib\\code.py', 'PYMODULE'),
  ('codeop', 'C:\\Users\\oskar\\anaconda3\\lib\\codeop.py', 'PYMODULE'),
  ('dis', 'C:\\Users\\oskar\\anaconda3\\lib\\dis.py', 'PYMODULE'),
  ('opcode', 'C:\\Users\\oskar\\anaconda3\\lib\\opcode.py', 'PYMODULE'),
  ('bdb', 'C:\\Users\\oskar\\anaconda3\\lib\\bdb.py', 'PYMODULE'),
  ('cmd', 'C:\\Users\\oskar\\anaconda3\\lib\\cmd.py', 'PYMODULE'),
  ('inspect', 'C:\\Users\\oskar\\anaconda3\\lib\\inspect.py', 'PYMODULE'),
  ('difflib', 'C:\\Users\\oskar\\anaconda3\\lib\\difflib.py', 'PYMODULE'),
  ('__future__', 'C:\\Users\\oskar\\anaconda3\\lib\\__future__.py', 'PYMODULE'),
  ('_compat_pickle',
   'C:\\Users\\oskar\\anaconda3\\lib\\_compat_pickle.py',
   'PYMODULE'),
  ('tempfile', 'C:\\Users\\oskar\\anaconda3\\lib\\tempfile.py', 'PYMODULE'),
  ('_strptime', 'C:\\Users\\oskar\\anaconda3\\lib\\_strptime.py', 'PYMODULE'),
  ('struct', 'C:\\Users\\oskar\\anaconda3\\lib\\struct.py', 'PYMODULE'),
  ('socket', 'C:\\Users\\oskar\\anaconda3\\lib\\socket.py', 'PYMODULE'),
  ('multiprocessing.util',
   'C:\\Users\\oskar\\anaconda3\\lib\\multiprocessing\\util.py',
   'PYMODULE'),
  ('test.support',
   'C:\\Users\\oskar\\anaconda3\\lib\\test\\support\\__init__.py',
   'PYMODULE'),
  ('tracemalloc',
   'C:\\Users\\oskar\\anaconda3\\lib\\tracemalloc.py',
   'PYMODULE'),
  ('tkinter',
   'C:\\Users\\oskar\\anaconda3\\lib\\tkinter\\__init__.py',
   'PYMODULE'),
  ('tkinter.constants',
   'C:\\Users\\oskar\\anaconda3\\lib\\tkinter\\constants.py',
   'PYMODULE'),
  ('test.support.testresult',
   'C:\\Users\\oskar\\anaconda3\\lib\\test\\support\\testresult.py',
   'PYMODULE'),
  ('xml.etree.ElementTree',
   'C:\\Users\\oskar\\anaconda3\\lib\\xml\\etree\\ElementTree.py',
   'PYMODULE'),
  ('xml.etree.cElementTree',
   'C:\\Users\\oskar\\anaconda3\\lib\\xml\\etree\\cElementTree.py',
   'PYMODULE'),
  ('xml.etree.ElementInclude',
   'C:\\Users\\oskar\\anaconda3\\lib\\xml\\etree\\ElementInclude.py',
   'PYMODULE'),
  ('xml.etree.ElementPath',
   'C:\\Users\\oskar\\anaconda3\\lib\\xml\\etree\\ElementPath.py',
   'PYMODULE'),
  ('xml.etree',
   'C:\\Users\\oskar\\anaconda3\\lib\\xml\\etree\\__init__.py',
   'PYMODULE'),
  ('nntplib', 'C:\\Users\\oskar\\anaconda3\\lib\\nntplib.py', 'PYMODULE'),
  ('test', 'C:\\Users\\oskar\\anaconda3\\lib\\test\\__init__.py', 'PYMODULE'),
  ('signal', 'C:\\Users\\oskar\\anaconda3\\lib\\signal.py', 'PYMODULE'),
  ('multiprocessing.popen_spawn_win32',
   'C:\\Users\\oskar\\anaconda3\\lib\\multiprocessing\\popen_spawn_win32.py',
   'PYMODULE'),
  ('subprocess', 'C:\\Users\\oskar\\anaconda3\\lib\\subprocess.py', 'PYMODULE'),
  ('multiprocessing.spawn',
   'C:\\Users\\oskar\\anaconda3\\lib\\multiprocessing\\spawn.py',
   'PYMODULE'),
  ('multiprocessing',
   'C:\\Users\\oskar\\anaconda3\\lib\\multiprocessing\\__init__.py',
   'PYMODULE'),
  ('os', 'C:\\Users\\oskar\\anaconda3\\lib\\os.py', 'PYMODULE'),
  ('stringprep', 'C:\\Users\\oskar\\anaconda3\\lib\\stringprep.py', 'PYMODULE'),
  ('_py_abc', 'C:\\Users\\oskar\\anaconda3\\lib\\_py_abc.py', 'PYMODULE'),
  ('sqlite3',
   'C:\\Users\\oskar\\anaconda3\\lib\\sqlite3\\__init__.py',
   'PYMODULE'),
  ('sqlite3.dump',
   'C:\\Users\\oskar\\anaconda3\\lib\\sqlite3\\dump.py',
   'PYMODULE'),
  ('sqlite3.dbapi2',
   'C:\\Users\\oskar\\anaconda3\\lib\\sqlite3\\dbapi2.py',
   'PYMODULE'),
  ('datetime', 'C:\\Users\\oskar\\anaconda3\\lib\\datetime.py', 'PYMODULE'),
  ('logging',
   'C:\\Users\\oskar\\anaconda3\\lib\\logging\\__init__.py',
   'PYMODULE'),
  ('websocket',
   'C:\\Users\\oskar\\anaconda3\\lib\\site-packages\\websocket\\__init__.py',
   'PYMODULE'),
  ('websocket._socket',
   'C:\\Users\\oskar\\anaconda3\\lib\\site-packages\\websocket\\_socket.py',
   'PYMODULE'),
  ('websocket._utils',
   'C:\\Users\\oskar\\anaconda3\\lib\\site-packages\\websocket\\_utils.py',
   'PYMODULE'),
  ('websocket._ssl_compat',
   'C:\\Users\\oskar\\anaconda3\\lib\\site-packages\\websocket\\_ssl_compat.py',
   'PYMODULE'),
  ('websocket._logging',
   'C:\\Users\\oskar\\anaconda3\\lib\\site-packages\\websocket\\_logging.py',
   'PYMODULE'),
  ('websocket._exceptions',
   'C:\\Users\\oskar\\anaconda3\\lib\\site-packages\\websocket\\_exceptions.py',
   'PYMODULE'),
  ('websocket._core',
   'C:\\Users\\oskar\\anaconda3\\lib\\site-packages\\websocket\\_core.py',
   'PYMODULE'),
  ('websocket._http',
   'C:\\Users\\oskar\\anaconda3\\lib\\site-packages\\websocket\\_http.py',
   'PYMODULE'),
  ('websocket._url',
   'C:\\Users\\oskar\\anaconda3\\lib\\site-packages\\websocket\\_url.py',
   'PYMODULE'),
  ('websocket._handshake',
   'C:\\Users\\oskar\\anaconda3\\lib\\site-packages\\websocket\\_handshake.py',
   'PYMODULE'),
  ('websocket._cookiejar',
   'C:\\Users\\oskar\\anaconda3\\lib\\site-packages\\websocket\\_cookiejar.py',
   'PYMODULE'),
  ('http.cookies',
   'C:\\Users\\oskar\\anaconda3\\lib\\http\\cookies.py',
   'PYMODULE'),
  ('websocket._app',
   'C:\\Users\\oskar\\anaconda3\\lib\\site-packages\\websocket\\_app.py',
   'PYMODULE'),
  ('websocket._abnf',
   'C:\\Users\\oskar\\anaconda3\\lib\\site-packages\\websocket\\_abnf.py',
   'PYMODULE'),
  ('ast', 'C:\\Users\\oskar\\anaconda3\\lib\\ast.py', 'PYMODULE')])
